Program Counter & Register Design/register1/simulation/qsim/register1.msim.vcd
$comment
	File created using the following command:
		vcd file register1.msim.vcd -direction
$end
$date
	Thu Feb  3 02:56:43 2022
$end
$version
	ModelSim Version 10.1e
$end
$timescale
	1ps
$end
$scope module register1_vlg_vec_tst $end
$var reg 1 ! clk $end
$var reg 1 " clr $end
$var reg 1 # d $end
$var reg 1 $ ld $end
$var wire 1 % Q $end
$var wire 1 & sampler $end
$scope module i1 $end
$var wire 1 ' gnd $end
$var wire 1 ( vcc $end
$var wire 1 ) unknown $end
$var tri1 1 * devclrn $end
$var tri1 1 + devpor $end
$var tri1 1 , devoe $end
$var wire 1 - Q~output_o $end
$var wire 1 . clk~input_o $end
$var wire 1 / ld~input_o $end
$var wire 1 0 d~input_o $end
$var wire 1 1 Q~0_combout $end
$var wire 1 2 clr~input_o $end
$var wire 1 3 Q~reg0_q $end
$upscope $end
$upscope $end
$enddefinitions $end
#0
$dumpvars
0!
0"
0#
0$
x%
x&
0'
1(
x)
1*
1+
1,
x-
0.
0/
00
x1
02
03
$end
#3426
01
#3473
0-
0%
#25000
1!
0&
#25699
1.
#50000
0!
1&
#50805
0.
#75000
1!
0&
#75699
1.
#100000
1#
0!
1&
#100689
10
#100805
0.
#125000
1!
0&
#125699
1.
#150000
0!
1&
#150805
0.
#175000
1!
0&
#175699
1.
#200000
1$
0!
1&
#200719
1/
#200805
0.
#204196
11
#225000
1!
0&
#225699
1.
#227503
13
#231014
1-
1%
#250000
0!
1&
#250805
0.
#275000
1!
0&
#275699
1.
#300000
0#
0$
0!
1&
#300795
00
#300805
0.
#300825
0/
#325000
1!
0&
#325699
1.
#350000
0!
1&
#350805
0.
#375000
1!
0&
#375699
1.
#400000
1"
0!
1&
#400709
12
#400805
0.
#404860
03
#405289
01
#408333
0-
0%
#425000
1!
0&
#425699
1.
#450000
0!
1&
#450805
0.
#475000
1!
0&
#475699
1.
#500000
1#
0"
0!
1&
#500689
10
#500805
0.
#500815
02
#525000
1!
0&
#525699
1.
#550000
0!
1&
#550805
0.
#575000
1!
0&
#575699
1.
#600000
0!
1&
#600805
0.
#625000
1!
0&
#625699
1.
#650000
0!
1&
#650805
0.
#675000
1!
0&
#675699
1.
#700000
1$
0!
1&
#700719
1/
#700805
0.
#704196
11
#725000
1!
0&
#725699
1.
#727503
13
#731014
1-
1%
#750000
0!
1&
#750805
0.
#775000
1!
0&
#775699
1.
#800000
0#
0$
0!
1&
#800795
00
#800805
0.
#800825
0/
#825000
1!
0&
#825699
1.
#850000
0!
1&
#850805
0.
#875000
1!
0&
#875699
1.
#900000
0!
1&
#900805
0.
#925000
1!
0&
#925699
1.
#950000
0!
1&
#950805
0.
#975000
1!
0&
#975699
1.
